New York City Tree Census and Air Quality Analysis
…
# Load the data
tree_1995_raw <- read_csv("data/new_york_tree_census_1995.csv")
tree_2005_raw <- read_csv("data/new_york_tree_census_2005.csv")
tree_2015_raw <- read_csv("data/new_york_tree_census_2015.csv")

#Here we save a copy of the dataset so that we always have the dataset saved in a variable
tree_1995 <- tree_1995_raw
tree_2005 <- tree_2005_raw
tree_2015 <- tree_2015_raw

#Print 1995 for example
tree_1995

## # A tibble: 516,989 x 27
##    recordid address house_number street zip_original cb_original site 
##       <int> <chr>   <chr>        <chr>         <int>       <int> <chr>
##  1   433600 73-031 73-031       57 AV         11378         405 Front
##  2    48050 2434 H 2434         HOFFM        10458         106 Adja
##  3   506340 33 MUL 33           MULBE        10314         502 Front
##  4   348044 79-037 79-037       213 ST        11364         411 Front
##  5   354765 68-015 68-015       172 ST        11365         408 Front
##  6   228644 30-023 30-023       84 ST         11370         403 Front
##  7   154016 562 1  562          1 ST          11215         206 Front
##  8   499366 93 LIT 93           LITTL        10301         501 Side 
##  9    51547 100 AL 100          ALCOT        10475         110 Front
## 10   377394 86-008 86-008       RANGE        11427         413 Front
## # ... with 516,979 more rows, and 20 more variables: species <chr>,
## #   diameter <int>, status <chr>, wires <chr>, sidewalk_condition <chr>,
## #   support_structure <chr>, borough <chr>, x <dbl>, y <dbl>,
## #   longitude <dbl>, latitude <dbl>, cb_new <int>, zip_new <int>,
## #   censustract_2010 <chr>, censusblock_2010 <chr>, nta_2010 <chr>,
## #   segmentid <int>, spc_common <chr>, spc_latin <chr>, location <chr>
…
#Here we will begin comparing the tree census data over the three decades

#To determine if the tree_id is consistent accrosa multiple years we combine all of the datasets, and then check specific values as follows:
all_years_common_genus <- all_years_common_genus[c("name", "genus")]

#Plots to show the most common genuses accross all of NYC when looking at specific genuses in each borough by year, and then by ignoring the effects of boroughs
trees_with_common <- sub_all_years %>% left_join(all_years_common_genus, by = "genus") %>% filter(name!= 'NA')
trees_with_common

## # A tibble: 1,064,303 x 6
##    tree_id borough       spc_latin              year  genus    name       
##    <chr>   <chr>         <chr>                  <chr> <chr>    <fct>      
##  1 433600  Queens        QUERCUS PALUSTRIS      1995  QUERCUS  Oak        
##  2 48050   Bronx         GLEDITSIA TRIACANTHOS  1995  GLEDITS Honey Locu
##  3 506340  Staten Island QUERCUS RUBRA          1995  QUERCUS  Oak        
##  4 348044  Queens        ACER PLATANOIDES       1995  ACER     Maple      
##  5 354765  Queens        ACER PLATANOIDES       1995  ACER     Maple      
##  6 228644  Queens        QUERCUS PALUSTRIS      1995  QUERCUS  Oak        
##  7 154016  Brooklyn      PLATANUS ACERIFOLIA    1995  PLATANUS Plane      
##  8 499366  Staten Island GINKGO BILOBA          1995  GINKGO   Ginkgo     
##  9 51547   Bronx         GLEDITSIA TRIACANTHOS  1995  GLEDITS Honey Locu
## 10 377394  Queens        FRAXINUS PENNSYLVANICA 1995  FRAXINUS Ash        
## # ... with 1,064,293 more rows
…
air_quality_2015 <- air_quality_2015 %>% 
   count(UHF42)

linear_2015 <- model_2015_data %>%
  full_join(air_quality_2015) %>%
  filter(!is.na(AQI))

names(linear_2015)[names(linear_2015) == "n"] <- "Tree Density"

# final dataframe containing UHF42, AQI, and Tree Density in 2005
 
 linear_2005

## # A tibble: 42 x 3
##    UHF42   AQI `Tree Density`
##    <chr> <dbl>          <int>
##  1 101    3.05          13098
##  2 102    3             30416
##  3 103    2.95          14538
##  4 104    2.95          31932
##  5 105    3.2           11354
##  6 106    3.3            8144
##  7 107    3.15           8078
##  8 201    3.6           14334
##  9 202    3.45          36688
## 10 203    2.75          26792
## # ... with 32 more rows

 logistic_2005 <- logistic_2005 %>%
   transmute(UHF42, AQI, health) %>%
   filter(!is.na(health))
 
 logistic_2005

## # A tibble: 1,160,374 x 3
##    UHF42   AQI health
##    <chr> <dbl> <chr> 
##  1 101    3.05 Good  
##  2 101    3.05 Good  
##  3 101    3.05 Bad   
##  4 101    3.05 Good  
##  5 101    3.05 Good  
##  6 101    3.05 Good  
##  7 101    3.05 Good  
##  8 101    3.05 Good  
##  9 101    3.05 Good  
## 10 101    3.05 Good  
## # ... with 1,160,364 more rows

# final dataframe containing UHF42, AQI, and Tree Density in 2005
 
 linear_2015

## # A tibble: 42 x 3
##    UHF42   AQI `Tree Density`
##    <chr> <dbl>          <int>
##  1 101   20.7           16878
##  2 102   12.1           48339
##  3 103   32.8           32250
##  4 104    9.93          68556
##  5 105   27.1           31458
##  6 106   33.4           29565
##  7 107   13.5           28563
##  8 201    6.47          23541
##  9 202   11.0           61254
## 10 203   10.9           59919
## # ... with 32 more rows

 logistic_2015 <- logistic_2015 %>%
   transmute(UHF42, AQI, health) %>%
   filter(!is.na(health))
 
 logistic_2015

## # A tibble: 1,935,705 x 3
##    UHF42   AQI health
##    <chr> <dbl> <chr> 
##  1 101    20.7 Good  
##  2 101    20.7 Good  
##  3 101    20.7 Good  
##  4 101    20.7 Good  
##  5 101    20.7 Good  
##  6 101    20.7 Good  
##  7 101    20.7 Good  
##  8 101    20.7 Good  
##  9 101    20.7 Good  
## 10 101    20.7 Good  
## # ... with 1,935,695 more rows
…
